// Jest Snapshot v1, https://goo.gl/fbAQLP

exports[`render SeaLevel component and show sea level 1`] = `
<div
  className="sea-wrapper"
>
  <h3>
    12
    <sup>
      °C
    </sup>
  </h3>
  <div
    className="sea-level"
  >
    <h4>
       Sea Level
    </h4>
    <span>
      13232
    </span>
  </div>
</div>
`;
